%!PS-Adobe-3.0 EPSF-3.0
%%Title: GRU-vs-LSTM.eps
%%Creator: matplotlib version 3.0.2, http://matplotlib.org/
%%CreationDate: Mon Aug 12 06:01:25 2019
%%Orientation: portrait
%%BoundingBox: -54 252 666 540
%%EndComments
%%BeginProlog
/mpldict 8 dict def
mpldict begin
/m { moveto } bind def
/l { lineto } bind def
/r { rlineto } bind def
/c { curveto } bind def
/cl { closepath } bind def
/box {
m
1 index 0 r
0 exch r
neg 0 r
cl
} bind def
/clipbox {
box
clip
newpath
} bind def
%!PS-Adobe-3.0 Resource-Font
%%Title: DejaVu Sans
%%Copyright: Copyright (c) 2003 by Bitstream, Inc. All Rights Reserved. Copyright (c) 2006 by Tavmjong Bah. All Rights Reserved. DejaVu changes are in public domain 
%%Creator: Converted from TrueType to type 3 by PPR
25 dict begin
/_d{bind def}bind def
/_m{moveto}_d
/_l{lineto}_d
/_cl{closepath eofill}_d
/_c{curveto}_d
/_sc{7 -1 roll{setcachedevice}{pop pop pop pop pop pop}ifelse}_d
/_e{exec}_d
/FontName /DejaVuSans def
/PaintType 0 def
/FontMatrix[.001 0 0 .001 0 0]def
/FontBBox[-1021 -463 1793 1232]def
/FontType 3 def
/Encoding [ /space /period /zero /one /two /four /six /eight /G /L /M /R /S /T /U /h /s ] def
/FontInfo 10 dict dup begin
/FamilyName (DejaVu Sans) def
/FullName (DejaVu Sans) def
/Notice (Copyright (c) 2003 by Bitstream, Inc. All Rights Reserved. Copyright (c) 2006 by Tavmjong Bah. All Rights Reserved. DejaVu changes are in public domain ) def
/Weight (Book) def
/Version (Version 2.35) def
/ItalicAngle 0.0 def
/isFixedPitch false def
/UnderlinePosition -130 def
/UnderlineThickness 90 def
end readonly def
/CharStrings 18 dict dup begin
/.notdef 0 def
/space{318 0 0 0 0 0 _sc
}_d
/period{318 0 107 0 210 124 _sc
107 124 _m
210 124 _l
210 0 _l
107 0 _l
107 124 _l
_cl}_d
/zero{636 0 66 -13 570 742 _sc
318 664 _m
267 664 229 639 203 589 _c
177 539 165 464 165 364 _c
165 264 177 189 203 139 _c
229 89 267 64 318 64 _c
369 64 407 89 433 139 _c
458 189 471 264 471 364 _c
471 464 458 539 433 589 _c
407 639 369 664 318 664 _c
318 742 _m
399 742 461 709 505 645 _c
548 580 570 486 570 364 _c
570 241 548 147 505 83 _c
461 19 399 -13 318 -13 _c
236 -13 173 19 130 83 _c
87 147 66 241 66 364 _c
66 486 87 580 130 645 _c
173 709 236 742 318 742 _c
_cl}_d
/one{636 0 110 0 544 729 _sc
124 83 _m
285 83 _l
285 639 _l
110 604 _l
110 694 _l
284 729 _l
383 729 _l
383 83 _l
544 83 _l
544 0 _l
124 0 _l
124 83 _l
_cl}_d
/two{{636 0 73 0 536 742 _sc
192 83 _m
536 83 _l
536 0 _l
73 0 _l
73 83 _l
110 121 161 173 226 239 _c
290 304 331 346 348 365 _c
380 400 402 430 414 455 _c
426 479 433 504 433 528 _c
433 566 419 598 392 622 _c
365 646 330 659 286 659 _c
255 659 222 653 188 643 _c
154 632 117 616 78 594 _c
78 694 _l
118 710 155 722 189 730 _c
223 738 255 742 284 742 _c
}_e{359 742 419 723 464 685 _c
509 647 532 597 532 534 _c
532 504 526 475 515 449 _c
504 422 484 390 454 354 _c
446 344 420 317 376 272 _c
332 227 271 164 192 83 _c
_cl}_e}_d
/four{636 0 49 0 580 729 _sc
378 643 _m
129 254 _l
378 254 _l
378 643 _l
352 729 _m
476 729 _l
476 254 _l
580 254 _l
580 172 _l
476 172 _l
476 0 _l
378 0 _l
378 172 _l
49 172 _l
49 267 _l
352 729 _l
_cl}_d
/six{{636 0 70 -13 573 742 _sc
330 404 _m
286 404 251 388 225 358 _c
199 328 186 286 186 234 _c
186 181 199 139 225 109 _c
251 79 286 64 330 64 _c
374 64 409 79 435 109 _c
461 139 474 181 474 234 _c
474 286 461 328 435 358 _c
409 388 374 404 330 404 _c
526 713 _m
526 623 _l
501 635 476 644 451 650 _c
425 656 400 659 376 659 _c
310 659 260 637 226 593 _c
}_e{192 549 172 482 168 394 _c
187 422 211 444 240 459 _c
269 474 301 482 336 482 _c
409 482 467 459 509 415 _c
551 371 573 310 573 234 _c
573 159 550 99 506 54 _c
462 9 403 -13 330 -13 _c
246 -13 181 19 137 83 _c
92 147 70 241 70 364 _c
70 479 97 571 152 639 _c
206 707 280 742 372 742 _c
396 742 421 739 447 735 _c
472 730 498 723 526 713 _c
_cl}_e}_d
/eight{{636 0 68 -13 568 742 _sc
318 346 _m
271 346 234 333 207 308 _c
180 283 167 249 167 205 _c
167 161 180 126 207 101 _c
234 76 271 64 318 64 _c
364 64 401 76 428 102 _c
455 127 469 161 469 205 _c
469 249 455 283 429 308 _c
402 333 365 346 318 346 _c
219 388 _m
177 398 144 418 120 447 _c
96 476 85 511 85 553 _c
85 611 105 657 147 691 _c
188 725 245 742 318 742 _c
}_e{390 742 447 725 489 691 _c
530 657 551 611 551 553 _c
551 511 539 476 515 447 _c
491 418 459 398 417 388 _c
464 377 501 355 528 323 _c
554 291 568 251 568 205 _c
568 134 546 80 503 43 _c
459 5 398 -13 318 -13 _c
237 -13 175 5 132 43 _c
89 80 68 134 68 205 _c
68 251 81 291 108 323 _c
134 355 171 377 219 388 _c
183 544 _m
183 506 194 476 218 455 _c
}_e{242 434 275 424 318 424 _c
360 424 393 434 417 455 _c
441 476 453 506 453 544 _c
453 582 441 611 417 632 _c
393 653 360 664 318 664 _c
275 664 242 653 218 632 _c
194 611 183 582 183 544 _c
_cl}_e}_d
/G{{775 0 56 -13 693 742 _sc
595 104 _m
595 300 _l
434 300 _l
434 381 _l
693 381 _l
693 68 _l
655 40 613 20 567 7 _c
521 -6 472 -13 420 -13 _c
306 -13 216 20 152 86 _c
88 152 56 245 56 364 _c
56 482 88 575 152 642 _c
216 708 306 742 420 742 _c
467 742 512 736 555 724 _c
598 712 638 695 674 673 _c
674 568 _l
637 598 598 621 557 637 _c
516 653 473 661 428 661 _c
}_e{338 661 271 636 227 586 _c
182 536 160 462 160 364 _c
160 265 182 191 227 141 _c
271 91 338 67 428 67 _c
462 67 493 70 521 76 _c
549 82 573 91 595 104 _c
_cl}_e}_d
/L{557 0 98 0 552 729 _sc
98 729 _m
197 729 _l
197 83 _l
552 83 _l
552 0 _l
98 0 _l
98 729 _l
_cl}_d
/M{863 0 98 0 765 729 _sc
98 729 _m
245 729 _l
431 233 _l
618 729 _l
765 729 _l
765 0 _l
669 0 _l
669 640 _l
481 140 _l
382 140 _l
194 640 _l
194 0 _l
98 0 _l
98 729 _l
_cl}_d
/R{{695 0 98 0 666 729 _sc
444 342 _m
465 334 486 319 506 296 _c
526 272 546 240 566 199 _c
666 0 _l
560 0 _l
467 187 _l
443 235 419 268 397 284 _c
374 300 343 308 304 308 _c
197 308 _l
197 0 _l
98 0 _l
98 729 _l
321 729 _l
404 729 466 711 507 677 _c
548 642 569 589 569 519 _c
569 473 558 434 537 404 _c
515 374 484 353 444 342 _c
197 648 _m
197 389 _l
321 389 _l
}_e{368 389 404 400 428 422 _c
452 444 465 476 465 519 _c
465 561 452 593 428 615 _c
404 637 368 648 321 648 _c
197 648 _l
_cl}_e}_d
/S{{635 0 66 -13 579 742 _sc
535 705 _m
535 609 _l
497 627 462 640 429 649 _c
395 657 363 662 333 662 _c
279 662 237 651 208 631 _c
179 610 165 580 165 542 _c
165 510 174 485 194 469 _c
213 452 250 439 304 429 _c
364 417 _l
437 403 491 378 526 343 _c
561 307 579 260 579 201 _c
579 130 555 77 508 41 _c
460 5 391 -13 300 -13 _c
265 -13 228 -9 189 -2 _c
}_e{150 5 110 16 69 32 _c
69 134 _l
109 111 148 94 186 83 _c
224 71 262 66 300 66 _c
356 66 399 77 430 99 _c
460 121 476 152 476 194 _c
476 230 465 258 443 278 _c
421 298 385 313 335 323 _c
275 335 _l
201 349 148 372 115 404 _c
82 435 66 478 66 534 _c
66 598 88 649 134 686 _c
179 723 242 742 322 742 _c
356 742 390 739 426 733 _c
461 727 497 717 535 705 _c
}_e{_cl}_e}_d
/T{611 0 -2 0 614 729 _sc
-2 729 _m
614 729 _l
614 646 _l
355 646 _l
355 0 _l
256 0 _l
256 646 _l
-2 646 _l
-2 729 _l
_cl}_d
/U{732 0 87 -13 645 729 _sc
87 729 _m
186 729 _l
186 286 _l
186 208 200 151 228 117 _c
256 83 302 66 366 66 _c
429 66 475 83 503 117 _c
531 151 546 208 546 286 _c
546 729 _l
645 729 _l
645 274 _l
645 178 621 107 574 59 _c
527 11 458 -13 366 -13 _c
274 -13 204 11 157 59 _c
110 107 87 178 87 274 _c
87 729 _l
_cl}_d
/h{634 0 91 0 549 760 _sc
549 330 _m
549 0 _l
459 0 _l
459 327 _l
459 379 448 417 428 443 _c
408 469 378 482 338 482 _c
289 482 251 466 223 435 _c
195 404 181 362 181 309 _c
181 0 _l
91 0 _l
91 760 _l
181 760 _l
181 462 _l
202 494 227 519 257 535 _c
286 551 320 560 358 560 _c
420 560 468 540 500 501 _c
532 462 549 405 549 330 _c
_cl}_d
/s{{521 0 54 -13 472 560 _sc
443 531 _m
443 446 _l
417 458 391 468 364 475 _c
336 481 308 485 279 485 _c
234 485 200 478 178 464 _c
156 450 145 430 145 403 _c
145 382 153 366 169 354 _c
185 342 217 330 265 320 _c
296 313 _l
360 299 405 279 432 255 _c
458 230 472 195 472 151 _c
472 100 452 60 412 31 _c
372 1 316 -13 246 -13 _c
216 -13 186 -10 154 -5 _c
}_e{122 0 89 8 54 20 _c
54 113 _l
87 95 120 82 152 74 _c
184 65 216 61 248 61 _c
290 61 323 68 346 82 _c
368 96 380 117 380 144 _c
380 168 371 187 355 200 _c
339 213 303 226 247 238 _c
216 245 _l
160 257 119 275 95 299 _c
70 323 58 356 58 399 _c
58 450 76 490 112 518 _c
148 546 200 560 268 560 _c
301 560 332 557 362 552 _c
391 547 418 540 443 531 _c
}_e{_cl}_e}_d
end readonly def

/BuildGlyph
 {exch begin
 CharStrings exch
 2 copy known not{pop /.notdef}if
 true 3 1 roll get exec
 end}_d

/BuildChar {
 1 index /Encoding get exch get
 1 index /BuildGlyph get exec
}_d

FontName currentdict end definefont pop
end
%%EndProlog
mpldict begin
-54 252 translate
720 288 0 0 clipbox
gsave
0 0 m
720 0 l
720 288 l
0 288 l
cl
1.000 setgray
fill
grestore
gsave
90 36 m
343.636364 36 l
343.636364 253.44 l
90 253.44 l
cl
1.000 setgray
fill
grestore
0.800 setlinewidth
1 setlinejoin
0 setlinecap
[] 0 setdash
0.000 setgray
gsave
/o {
gsave
newpath
translate
0.8 setlinewidth
1 setlinejoin
0 setlinecap
0 0 m
0 -3.5 l

gsave
0.000 setgray
fill
grestore
stroke
grestore
} bind def
101.529 36 o
grestore
/DejaVuSans findfont
10.000 scalefont
setfont
gsave
98.349238 21.406250 translate
0.000000 rotate
0.000000 0.000000 m /zero glyphshow
grestore
gsave
/o {
gsave
newpath
translate
0.8 setlinewidth
1 setlinejoin
0 setlinecap
0 0 m
0 -3.5 l

gsave
0.000 setgray
fill
grestore
stroke
grestore
} bind def
145.077 36 o
grestore
gsave
135.538380 21.406250 translate
0.000000 rotate
0.000000 0.000000 m /two glyphshow
6.362305 0.000000 m /zero glyphshow
12.724609 0.000000 m /zero glyphshow
grestore
gsave
/o {
gsave
newpath
translate
0.8 setlinewidth
1 setlinejoin
0 setlinecap
0 0 m
0 -3.5 l

gsave
0.000 setgray
fill
grestore
stroke
grestore
} bind def
188.626 36 o
grestore
gsave
179.086898 21.406250 translate
0.000000 rotate
0.000000 0.000000 m /four glyphshow
6.362305 0.000000 m /zero glyphshow
12.724609 0.000000 m /zero glyphshow
grestore
gsave
/o {
gsave
newpath
translate
0.8 setlinewidth
1 setlinejoin
0 setlinecap
0 0 m
0 -3.5 l

gsave
0.000 setgray
fill
grestore
stroke
grestore
} bind def
232.174 36 o
grestore
gsave
222.635415 21.406250 translate
0.000000 rotate
0.000000 0.000000 m /six glyphshow
6.362305 0.000000 m /zero glyphshow
12.724609 0.000000 m /zero glyphshow
grestore
gsave
/o {
gsave
newpath
translate
0.8 setlinewidth
1 setlinejoin
0 setlinecap
0 0 m
0 -3.5 l

gsave
0.000 setgray
fill
grestore
stroke
grestore
} bind def
275.723 36 o
grestore
gsave
266.183933 21.406250 translate
0.000000 rotate
0.000000 0.000000 m /eight glyphshow
6.362305 0.000000 m /zero glyphshow
12.724609 0.000000 m /zero glyphshow
grestore
gsave
/o {
gsave
newpath
translate
0.8 setlinewidth
1 setlinejoin
0 setlinecap
0 0 m
0 -3.5 l

gsave
0.000 setgray
fill
grestore
stroke
grestore
} bind def
319.272 36 o
grestore
gsave
306.552763 21.406250 translate
0.000000 rotate
0.000000 0.000000 m /one glyphshow
6.362305 0.000000 m /zero glyphshow
12.724609 0.000000 m /zero glyphshow
19.086914 0.000000 m /zero glyphshow
grestore
gsave
/o {
gsave
newpath
translate
0.8 setlinewidth
1 setlinejoin
0 setlinecap
0 0 m
-3.5 0 l

gsave
0.000 setgray
fill
grestore
stroke
grestore
} bind def
90 36 o
grestore
gsave
67.093750 32.203125 translate
0.000000 rotate
0.000000 0.000000 m /zero glyphshow
6.362305 0.000000 m /period glyphshow
9.541016 0.000000 m /zero glyphshow
grestore
gsave
/o {
gsave
newpath
translate
0.8 setlinewidth
1 setlinejoin
0 setlinecap
0 0 m
-3.5 0 l

gsave
0.000 setgray
fill
grestore
stroke
grestore
} bind def
90 79.488 o
grestore
gsave
67.093750 75.691125 translate
0.000000 rotate
0.000000 0.000000 m /zero glyphshow
6.362305 0.000000 m /period glyphshow
9.541016 0.000000 m /two glyphshow
grestore
gsave
/o {
gsave
newpath
translate
0.8 setlinewidth
1 setlinejoin
0 setlinecap
0 0 m
-3.5 0 l

gsave
0.000 setgray
fill
grestore
stroke
grestore
} bind def
90 122.976 o
grestore
gsave
67.093750 119.179125 translate
0.000000 rotate
0.000000 0.000000 m /zero glyphshow
6.362305 0.000000 m /period glyphshow
9.541016 0.000000 m /four glyphshow
grestore
gsave
/o {
gsave
newpath
translate
0.8 setlinewidth
1 setlinejoin
0 setlinecap
0 0 m
-3.5 0 l

gsave
0.000 setgray
fill
grestore
stroke
grestore
} bind def
90 166.464 o
grestore
gsave
67.093750 162.667125 translate
0.000000 rotate
0.000000 0.000000 m /zero glyphshow
6.362305 0.000000 m /period glyphshow
9.541016 0.000000 m /six glyphshow
grestore
gsave
/o {
gsave
newpath
translate
0.8 setlinewidth
1 setlinejoin
0 setlinecap
0 0 m
-3.5 0 l

gsave
0.000 setgray
fill
grestore
stroke
grestore
} bind def
90 209.952 o
grestore
gsave
67.093750 206.155125 translate
0.000000 rotate
0.000000 0.000000 m /zero glyphshow
6.362305 0.000000 m /period glyphshow
9.541016 0.000000 m /eight glyphshow
grestore
gsave
/o {
gsave
newpath
translate
0.8 setlinewidth
1 setlinejoin
0 setlinecap
0 0 m
-3.5 0 l

gsave
0.000 setgray
fill
grestore
stroke
grestore
} bind def
90 253.44 o
grestore
gsave
67.093750 249.643125 translate
0.000000 rotate
0.000000 0.000000 m /one glyphshow
6.362305 0.000000 m /period glyphshow
9.541016 0.000000 m /zero glyphshow
grestore
1.500 setlinewidth
2 setlinecap
0.122 0.467 0.706 setrgbcolor
gsave
253.6 217.4 90 36 clipbox
101.528926 53.3952 m
109.088222 53.3952 l
110.303952 62.0928 l
110.910002 62.0928 l
111.218471 64.2672 l
111.824521 83.8368 l
112.445087 88.1856 l
113.79872 88.1856 l
113.936624 90.36 l
114.06727 90.36 l
114.237835 96.8832 l
114.611626 103.4064 l
114.883804 105.5808 l
115.693081 105.5808 l
115.736629 107.7552 l
116.041469 107.7552 l
116.64389 112.104 l
116.774536 112.104 l
117.043085 116.4528 l
117.315263 120.8016 l
118.458412 131.6736 l
118.661638 131.6736 l
118.76688 136.0224 l
118.930187 136.0224 l
119.07172 142.5456 l
119.198737 142.5456 l
119.467286 144.72 l
119.735835 146.8944 l
120.272933 146.8944 l
120.291079 149.0688 l
120.545112 149.0688 l
120.592289 151.2432 l
120.813661 151.2432 l
120.8935 155.592 l
121.08221 155.592 l
121.19471 159.9408 l
121.354388 159.9408 l
121.495921 162.1152 l
121.895116 162.1152 l
122.167294 164.2896 l
122.708021 164.2896 l
122.715279 168.6384 l
122.980199 168.6384 l
123.020119 172.9872 l
123.520927 172.9872 l
123.626169 175.1616 l
124.602382 175.1616 l
124.834641 179.5104 l
126.496742 179.5104 l
126.641904 181.6848 l
129.38909 181.6848 l
129.751994 183.8592 l
131.370547 183.8592 l
132.720551 186.0336 l
137.852018 186.0336 l
138.160487 188.208 l
138.766537 190.3824 l
139.071377 194.7312 l
139.673798 194.7312 l
140.27259 199.08 l
144.522199 199.08 l
144.827039 201.2544 l
146.764948 201.2544 l
147.835516 203.4288 l
149.631892 203.4288 l
152.709321 205.6032 l
163.788789 205.6032 l
164.423872 207.7776 l
171.616635 207.7776 l
172.255347 209.952 l
182.166264 209.952 l
182.830379 212.1264 l
197.012679 212.1264 l
197.31389 214.3008 l
218.380485 214.3008 l
223.63171 216.4752 l
256.561647 216.4752 l
256.561647 216.4752 l
stroke
grestore
1.000 0.498 0.055 setrgbcolor
gsave
253.6 217.4 90 36 clipbox
101.528926 59.9184 m
101.797475 79.488 l
102.062395 105.5808 l
102.327315 131.6736 l
102.592235 157.7664 l
102.857155 172.9872 l
103.122076 175.1616 l
103.386996 177.336 l
103.916836 183.8592 l
104.446676 183.8592 l
104.711596 183.8592 l
104.972888 186.0336 l
105.237808 188.208 l
105.771277 192.5568 l
106.032568 192.5568 l
106.297488 201.2544 l
107.08862 201.2544 l
107.35354 201.2544 l
107.879751 205.6032 l
109.197094 209.952 l
110.782986 209.952 l
111.312826 212.1264 l
112.103957 212.1264 l
112.630169 212.1264 l
115.007192 214.3008 l
117.66728 214.3008 l
118.988252 214.3008 l
119.786642 216.4752 l
120.051562 216.4752 l
124.809237 218.6496 l
125.865289 218.6496 l
126.395129 218.6496 l
126.924969 218.6496 l
129.5778 218.6496 l
130.895143 218.6496 l
131.954823 218.6496 l
136.447578 220.824 l
136.712499 220.824 l
136.977419 225.1728 l
137.242339 225.1728 l
137.76855 225.1728 l
138.56694 227.3472 l
138.83186 227.3472 l
139.887911 229.5216 l
142.544371 229.5216 l
143.074211 229.5216 l
144.133892 229.5216 l
145.186314 231.696 l
146.772206 231.696 l
147.298417 231.696 l
149.421408 231.696 l
150.212539 231.696 l
150.481088 231.696 l
152.335529 231.696 l
154.970215 233.8704 l
158.406918 233.8704 l
162.366204 233.8704 l
192.2296 233.8704 l
200.427609 233.8704 l
223.167193 236.0448 l
309.375112 236.0448 l
332.107438 236.0448 l
stroke
grestore
0.800 setlinewidth
0 setlinejoin
[] 0 setdash
0.000 setgray
gsave
90 36 m
90 253.44 l
stroke
grestore
gsave
343.636364 36 m
343.636364 253.44 l
stroke
grestore
gsave
90 36 m
343.636364 36 l
stroke
grestore
gsave
90 253.44 m
343.636364 253.44 l
stroke
grestore
1.000 setlinewidth
0 setlinecap
0.800 setgray
gsave
247.323864 41 m
336.636364 41 l
337.969697 41 338.636364 41.666667 338.636364 43 c
338.636364 71.34375 l
338.636364 72.677083 337.969697 73.34375 336.636364 73.34375 c
247.323864 73.34375 l
245.99053 73.34375 245.323864 72.677083 245.323864 71.34375 c
245.323864 43 l
245.323864 41.666667 245.99053 41 247.323864 41 c
cl
gsave
1.000 setgray
fill
grestore
stroke
grestore
1.500 setlinewidth
1 setlinejoin
2 setlinecap
[] 0 setdash
0.122 0.467 0.706 setrgbcolor
gsave
249.323864 65.25 m
269.323864 65.25 l
stroke
grestore
0.000 setgray
gsave
277.323864 61.750000 translate
0.000000 rotate
0.000000 0.000000 m /L glyphshow
5.571289 0.000000 m /S glyphshow
11.918945 0.000000 m /T glyphshow
18.027344 0.000000 m /M glyphshow
26.655273 0.000000 m /space glyphshow
29.833984 0.000000 m /h glyphshow
36.171875 0.000000 m /s glyphshow
41.381836 0.000000 m /space glyphshow
44.560547 0.000000 m /six glyphshow
50.922852 0.000000 m /zero glyphshow
grestore
1.000 0.498 0.055 setrgbcolor
gsave
249.323864 50.578125 m
269.323864 50.578125 l
stroke
grestore
0.000 setgray
gsave
277.323864 47.078125 translate
0.000000 rotate
0.000000 0.000000 m /G glyphshow
7.749023 0.000000 m /R glyphshow
14.697266 0.000000 m /U glyphshow
22.016602 0.000000 m /space glyphshow
25.195312 0.000000 m /h glyphshow
31.533203 0.000000 m /s glyphshow
36.743164 0.000000 m /space glyphshow
39.921875 0.000000 m /six glyphshow
46.284180 0.000000 m /zero glyphshow
grestore
gsave
394.363636 36 m
648 36 l
648 253.44 l
394.363636 253.44 l
cl
1.000 setgray
fill
grestore
0.800 setlinewidth
0 setlinecap
gsave
/o {
gsave
newpath
translate
0.8 setlinewidth
1 setlinejoin
0 setlinecap
0 0 m
0 -3.5 l

gsave
0.000 setgray
fill
grestore
stroke
grestore
} bind def
405.893 36 o
grestore
gsave
402.712874 21.406250 translate
0.000000 rotate
0.000000 0.000000 m /zero glyphshow
grestore
gsave
/o {
gsave
newpath
translate
0.8 setlinewidth
1 setlinejoin
0 setlinecap
0 0 m
0 -3.5 l

gsave
0.000 setgray
fill
grestore
stroke
grestore
} bind def
458.6 36 o
grestore
gsave
449.061175 21.406250 translate
0.000000 rotate
0.000000 0.000000 m /two glyphshow
6.362305 0.000000 m /zero glyphshow
12.724609 0.000000 m /zero glyphshow
grestore
gsave
/o {
gsave
newpath
translate
0.8 setlinewidth
1 setlinejoin
0 setlinecap
0 0 m
0 -3.5 l

gsave
0.000 setgray
fill
grestore
stroke
grestore
} bind def
511.308 36 o
grestore
gsave
501.768851 21.406250 translate
0.000000 rotate
0.000000 0.000000 m /four glyphshow
6.362305 0.000000 m /zero glyphshow
12.724609 0.000000 m /zero glyphshow
grestore
gsave
/o {
gsave
newpath
translate
0.8 setlinewidth
1 setlinejoin
0 setlinecap
0 0 m
0 -3.5 l

gsave
0.000 setgray
fill
grestore
stroke
grestore
} bind def
564.016 36 o
grestore
gsave
554.476527 21.406250 translate
0.000000 rotate
0.000000 0.000000 m /six glyphshow
6.362305 0.000000 m /zero glyphshow
12.724609 0.000000 m /zero glyphshow
grestore
gsave
/o {
gsave
newpath
translate
0.8 setlinewidth
1 setlinejoin
0 setlinecap
0 0 m
0 -3.5 l

gsave
0.000 setgray
fill
grestore
stroke
grestore
} bind def
616.723 36 o
grestore
gsave
607.184203 21.406250 translate
0.000000 rotate
0.000000 0.000000 m /eight glyphshow
6.362305 0.000000 m /zero glyphshow
12.724609 0.000000 m /zero glyphshow
grestore
gsave
/o {
gsave
newpath
translate
0.8 setlinewidth
1 setlinejoin
0 setlinecap
0 0 m
-3.5 0 l

gsave
0.000 setgray
fill
grestore
stroke
grestore
} bind def
394.364 36 o
grestore
gsave
371.457386 32.203125 translate
0.000000 rotate
0.000000 0.000000 m /zero glyphshow
6.362305 0.000000 m /period glyphshow
9.541016 0.000000 m /zero glyphshow
grestore
gsave
/o {
gsave
newpath
translate
0.8 setlinewidth
1 setlinejoin
0 setlinecap
0 0 m
-3.5 0 l

gsave
0.000 setgray
fill
grestore
stroke
grestore
} bind def
394.364 79.488 o
grestore
gsave
371.457386 75.691125 translate
0.000000 rotate
0.000000 0.000000 m /zero glyphshow
6.362305 0.000000 m /period glyphshow
9.541016 0.000000 m /two glyphshow
grestore
gsave
/o {
gsave
newpath
translate
0.8 setlinewidth
1 setlinejoin
0 setlinecap
0 0 m
-3.5 0 l

gsave
0.000 setgray
fill
grestore
stroke
grestore
} bind def
394.364 122.976 o
grestore
gsave
371.457386 119.179125 translate
0.000000 rotate
0.000000 0.000000 m /zero glyphshow
6.362305 0.000000 m /period glyphshow
9.541016 0.000000 m /four glyphshow
grestore
gsave
/o {
gsave
newpath
translate
0.8 setlinewidth
1 setlinejoin
0 setlinecap
0 0 m
-3.5 0 l

gsave
0.000 setgray
fill
grestore
stroke
grestore
} bind def
394.364 166.464 o
grestore
gsave
371.457386 162.667125 translate
0.000000 rotate
0.000000 0.000000 m /zero glyphshow
6.362305 0.000000 m /period glyphshow
9.541016 0.000000 m /six glyphshow
grestore
gsave
/o {
gsave
newpath
translate
0.8 setlinewidth
1 setlinejoin
0 setlinecap
0 0 m
-3.5 0 l

gsave
0.000 setgray
fill
grestore
stroke
grestore
} bind def
394.364 209.952 o
grestore
gsave
371.457386 206.155125 translate
0.000000 rotate
0.000000 0.000000 m /zero glyphshow
6.362305 0.000000 m /period glyphshow
9.541016 0.000000 m /eight glyphshow
grestore
gsave
/o {
gsave
newpath
translate
0.8 setlinewidth
1 setlinejoin
0 setlinecap
0 0 m
-3.5 0 l

gsave
0.000 setgray
fill
grestore
stroke
grestore
} bind def
394.364 253.44 o
grestore
gsave
371.457386 249.643125 translate
0.000000 rotate
0.000000 0.000000 m /one glyphshow
6.362305 0.000000 m /period glyphshow
9.541016 0.000000 m /zero glyphshow
grestore
1.500 setlinewidth
2 setlinecap
0.122 0.467 0.706 setrgbcolor
gsave
253.6 217.4 394.4 36 clipbox
405.892562 62.0928 m
406.283477 70.7904 l
407.465008 81.6624 l
408.260015 86.0112 l
408.659715 88.1856 l
409.059415 99.0576 l
410.245338 122.976 l
417.571704 136.0224 l
419.947942 153.4176 l
420.74295 164.2896 l
421.133865 166.464 l
421.515996 168.6384 l
422.671172 175.1616 l
423.057695 181.6848 l
424.208479 183.8592 l
424.972741 186.0336 l
425.359264 188.208 l
426.918532 190.3824 l
428.833578 192.5568 l
429.993147 194.7312 l
430.37967 201.2544 l
430.766193 203.4288 l
431.148323 205.6032 l
431.534846 205.6032 l
432.7032 207.7776 l
433.089723 209.952 l
436.164337 209.952 l
436.959345 212.1264 l
438.909529 214.3008 l
440.833359 214.3008 l
442.748404 216.4752 l
443.126143 216.4752 l
445.423319 216.4752 l
446.951841 216.4752 l
447.347149 216.4752 l
451.199202 216.4752 l
453.891685 216.4752 l
454.273816 218.6496 l
455.44217 218.6496 l
457.730561 218.6496 l
458.89013 218.6496 l
464.253136 220.824 l
470.753749 222.9984 l
471.153449 225.1728 l
471.539972 225.1728 l
472.330587 227.3472 l
472.712718 227.3472 l
473.103633 227.3472 l
473.494549 229.5216 l
474.254417 229.5216 l
474.636548 229.5216 l
475.392025 229.5216 l
475.774155 231.696 l
480.034693 231.696 l
480.798954 231.696 l
485.046314 231.696 l
486.223452 233.8704 l
487.751975 233.8704 l
492.372681 233.8704 l
493.53225 233.8704 l
495.460472 233.8704 l
496.615649 233.8704 l
498.148564 233.8704 l
498.92161 233.8704 l
500.081179 236.0448 l
501.240748 236.0448 l
510.486552 236.0448 l
520.031034 236.0448 l
520.417557 236.0448 l
520.799688 236.0448 l
538.869636 236.0448 l
540.033597 236.0448 l
546.178433 238.2192 l
568.197065 238.2192 l
636.471074 238.2192 l
stroke
grestore
1.000 0.498 0.055 setrgbcolor
gsave
253.6 217.4 394.4 36 clipbox
405.892562 70.7904 m
406.134139 99.0576 l
406.375716 129.4992 l
406.617293 140.3712 l
406.863262 153.4176 l
407.104839 155.592 l
407.346415 175.1616 l
407.587992 179.5104 l
407.829569 183.8592 l
408.317115 183.8592 l
408.558692 190.3824 l
409.529392 192.5568 l
411.475183 194.7312 l
411.71676 201.2544 l
414.132529 201.2544 l
414.374105 201.2544 l
416.073928 203.4288 l
417.044628 203.4288 l
418.261297 205.6032 l
421.419365 212.1264 l
421.660942 212.1264 l
421.902519 216.4752 l
422.873218 218.6496 l
423.114795 218.6496 l
423.597949 218.6496 l
424.081102 218.6496 l
425.04741 220.824 l
427.709147 222.9984 l
427.955117 229.5216 l
428.43827 229.5216 l
429.413362 229.5216 l
430.37967 229.5216 l
430.625639 231.696 l
431.350369 231.696 l
432.0751 231.696 l
434.732445 231.696 l
434.974022 233.8704 l
435.457176 233.8704 l
436.186299 233.8704 l
436.673845 233.8704 l
436.915421 233.8704 l
441.048582 236.0448 l
446.881565 236.0448 l
447.364718 236.0448 l
448.818572 236.0448 l
460.932552 236.0448 l
464.569382 236.0448 l
465.056928 236.0448 l
477.162124 238.2192 l
480.790169 238.2192 l
484.90576 238.2192 l
485.147337 238.2192 l
493.633273 238.2192 l
511.830598 238.2192 l
stroke
grestore
0.800 setlinewidth
0 setlinejoin
[] 0 setdash
0.000 setgray
gsave
394.363636 36 m
394.363636 253.44 l
stroke
grestore
gsave
648 36 m
648 253.44 l
stroke
grestore
gsave
394.363636 36 m
648 36 l
stroke
grestore
gsave
394.363636 253.44 m
648 253.44 l
stroke
grestore
1.000 setlinewidth
0 setlinecap
0.800 setgray
gsave
545.328125 41 m
641 41 l
642.333333 41 643 41.666667 643 43 c
643 71.34375 l
643 72.677083 642.333333 73.34375 641 73.34375 c
545.328125 73.34375 l
543.994792 73.34375 543.328125 72.677083 543.328125 71.34375 c
543.328125 43 l
543.328125 41.666667 543.994792 41 545.328125 41 c
cl
gsave
1.000 setgray
fill
grestore
stroke
grestore
1.500 setlinewidth
1 setlinejoin
2 setlinecap
[] 0 setdash
0.122 0.467 0.706 setrgbcolor
gsave
547.328125 65.25 m
567.328125 65.25 l
stroke
grestore
0.000 setgray
gsave
575.328125 61.750000 translate
0.000000 rotate
0.000000 0.000000 m /L glyphshow
5.571289 0.000000 m /S glyphshow
11.918945 0.000000 m /T glyphshow
18.027344 0.000000 m /M glyphshow
26.655273 0.000000 m /space glyphshow
29.833984 0.000000 m /h glyphshow
36.171875 0.000000 m /s glyphshow
41.381836 0.000000 m /space glyphshow
44.560547 0.000000 m /one glyphshow
50.922852 0.000000 m /two glyphshow
57.285156 0.000000 m /eight glyphshow
grestore
1.000 0.498 0.055 setrgbcolor
gsave
547.328125 50.578125 m
567.328125 50.578125 l
stroke
grestore
0.000 setgray
gsave
575.328125 47.078125 translate
0.000000 rotate
0.000000 0.000000 m /G glyphshow
7.749023 0.000000 m /R glyphshow
14.697266 0.000000 m /U glyphshow
22.016602 0.000000 m /space glyphshow
25.195312 0.000000 m /h glyphshow
31.533203 0.000000 m /s glyphshow
36.743164 0.000000 m /space glyphshow
39.921875 0.000000 m /one glyphshow
46.284180 0.000000 m /two glyphshow
52.646484 0.000000 m /eight glyphshow
grestore

end
showpage
